[
    {
        "name":"Coin",
        "plural": "Coins",
        "value":1,
        "buyable":false,
        "an": "A",
        "recipe": null,
        "craftQuantity": 1
    },
    {
        "name": "Stock",
        "plural": "Stocks",
        "value": 100000000,
        "buyable": true,
        "an": "A",
        "recipe": null,
        "craftQuantity": 1
    },
    {
        "name":"Fancy Gemstone",
        "plural": "Fancy Gemstones",
        "value":150,
        "buyable":true,
        "an": "A",
        "recipe": null,
        "craftQuantity": 1
    },
    {
        "name":"Vial of Tree Sap",
        "plural": "Vials of Tree Sap",
        "value":10,
        "buyable":false,
        "an": "A",
        "recipe": null,
        "craftQuantity": 1
    },
    {
        "name":"Tea Bag",
        "plural": "Tea Bags",
        "value":3,
        "buyable":true,
        "an": "A",
        "recipe": null,
        "craftQuantity": 1
    },
    {
        "name":"Passkey",
        "plural": "Passkeys",
        "value":500,
        "buyable":false,
        "an": "A",
        "recipe": null,
        "craftQuantity": 1
    },
    {
        "name":"Leather Strip",
        "plural": "Leather Strips",
        "value":8,
        "buyable":true,
        "an": "A",
        "recipe": null,
        "craftQuantity": 1
    },
    {
        "name":"Climbing Gear",
        "plural": "Climbing Gears",
        "value":90,
        "buyable":true,
        "an": "A",
        "recipe":  
        [
            {
                "name": "Iron Ingot",
                "quantity": 2,
                "consumed": true
            },
            {
                "name": "Leather Strip",
                "quantity": 4,
                "consumed": true
            },
            {
                "name": "Hammer",
                "quantity": 1,
                "consumed": false
            },
            {
                "name": "File",
                "quantity": 1,
                "consumed": false
            }
        ],
        "craftQuantity": 1
    },
    {
        "name":"Shortsword",
        "plural": "Shortswords",
        "value": 50,
        "buyable":true,
        "an": "A",
        "recipe":   
        [
            {
                "name": "Iron Ingot",
                "quantity": 2,
                "consumed": true
            },
            {
                "name": "Leather Strip",
                "quantity": 1,
                "consumed": true
            },
            {
                "name": "Stick",
                "quantity": 1,
                "consumed": true
            },
            {
                "name": "Hammer",
                "quantity": 1,
                "consumed": false
            },
            {
                "name": "File",
                "quantity": 1,
                "consumed": false
            }
        ],
        "craftQuantity": 1
    },
    {
        "name":"Ship",
        "plural":"Ships",
        "value":5000,
        "buyable":true,
        "an": "A",
        "recipe": null,
        "craftQuantity": 1
    },
    {
        "name":"Boarding Pass",
        "plural":"Boarding Passes",
        "value":350,
        "buyable":true,
        "an": "A",
        "recipe": null,
        "craftQuantity": 1
    },
    {
        "name":"Identity Disk",
        "plural": "Identity Disks",
        "value": 1500,
        "buyable":false,
        "an": "An",
        "recipe": null,
        "craftQuantity": 1
    },
    {
        "name":"Antiviral Subroutine",
        "plural": "Antiviral Subroutines",
        "value": 300,
        "buyable":false,
        "an": "An",
        "recipe": null,
        "craftQuantity": 1
    },
    {
        "name":"Elven Sword",
        "plural": "Elven Swords",
        "value": 500,
        "buyable":false,
        "an": "An",
        "recipe": null,
        "craftQuantity": 1
    },
    {
        "name":"Dwarven Sword",
        "plural": "Dwarven Swords",
        "value": 350,
        "buyable":true,
        "an": "A",
        "recipe": null,
        "craftQuantity": 1
    },
    {
        "name":"Magic Potion",
        "plural": "Magic Potions",
        "value": 40,
        "buyable":false,
        "an": "A",
        "recipe": null,
        "craftQuantity": 1
    },
    {
        "name": "Gold Ring",
        "plural": "Gold Rings",
        "value": 70,
        "buyable": true,
        "an": "A",
        "recipe": null,
        "craftQuantity": 1
    },
    {
        "name": "Silver Ring",
        "plural": "Silver Rings",
        "value": 35,
        "buyable": true,
        "an": "A",
        "recipe": null,
        "craftQuantity": 1
    },
    {
        "name": "Apple",
        "plural": "Apples",
        "value": 5,
        "buyable": true,
        "an": "An",
        "recipe": null,
        "craftQuantity": 1
    },
    {
        "name": "Orange",
        "plural": "Oranges",
        "value": 6,
        "buyable": true,
        "an": "An",
        "recipe": null,
        "craftQuantity": 1
    },
    {
        "name": "Loaf of Bread",
        "plural": "Loaves of Bread",
        "value": 5,
        "buyable": true,
        "an": "A",
        "recipe": 
        [
            {
                "name": "Dough",
                "quantity": 1,
                "consumed": true
            }
        ],
        "craftQuantity": 1
    },
    {
        "name": "Dough",
        "plural": "Dough",
        "value": 2,
        "buyable": true,
        "an": "A",
        "recipe": 
        [
            {
                "name": "Flour",
                "quantity": 3,
                "consumed": true
            }
        ],
        "craftQuantity": 1
    },
    {
        "name": "Flour",
        "plural": "Flour",
        "value": 1,
        "buyable": true,
        "an": "A",
        "recipe": null,
        "craftQuantity": 1
    },
    {
        "name": "Seashell",
        "plural": "Seashells",
        "value": 1,
        "buyable": false,
        "an": "A",
        "recipe": null,
        "craftQuantity": 1
    },
    {
        "name": "Nail",
        "plural": "Nails",
        "value": 1,
        "buyable": true,
        "an": "A",
        "recipe":  
        [
            {
                "name": "Iron Ingot",
                "quantity": 1,
                "consumed": true
            },
            {
                "name": "Hammer",
                "quantity": 1,
                "consumed": false
            }
        ],
        "craftQuantity": 10
    },
    {
        "name": "Shovel",
        "plural": "Shovels",
        "value": 25,
        "buyable": true,
        "an": "A",
        "recipe":  
        [
            {
                "name": "Stick",
                "quantity": 2,
                "consumed": true
            },
            {
                "name": "Iron Ingot",
                "quantity": 1,
                "consumed": true
            },
            {
                "name": "Nail",
                "quantity": 2,
                "consumed": true
            },
            {
                "name": "Hammer",
                "quantity": 1,
                "consumed": false
            }
        ],
        "craftQuantity": 1
    },
    {
        "name": "Backpack",
        "plural": "Backpacks",
        "value": 20,
        "buyable": true,
        "an": "A",
        "recipe":  
        [
            {
                "name": "Leather Strip",
                "quantity": 2,
                "consumed": true
            },
            {
                "name": "Thread",
                "quantity": 5,
                "consumed": true
            },
            {
                "name": "Cloth Sheet",
                "quantity": 1,
                "consumed": true
            }
        ],
        "craftQuantity": 1
    },
    {
        "name": "Cloth Sheet",
        "plural": "Cloth Sheets",
        "value": 6,
        "buyable": true,
        "an": "A",
        "recipe": null,
        "craftQuantity": 1
    },
    {
        "name": "Hat",
        "plural": "Hats",
        "value": 15,
        "buyable": true,
        "an": "A",
        "recipe": null,
        "craftQuantity": 1
    },
    {
        "name": "Gold Necklace",
        "plural": "Gold Necklaces",
        "value": 90,
        "buyable": true,
        "an": "A",
        "recipe": null,
        "craftQuantity": 1
    },
    {
        "name": "Shoe",
        "plural": "Shoes",
        "value": 18,
        "buyable": true,
        "an": "A",
        "recipe": null,
        "craftQuantity": 1
    },
    {
        "name": "Beer",
        "plural": "Beers",
        "value": 5,
        "buyable": true,
        "an": "A",
        "recipe": null,
        "craftQuantity": 1
    },
    {
        "name": "Orange Juice",
        "plural": "Orange Juices",
        "value": 8,
        "buyable": true,
        "an": "An",
        "recipe":   
        [
            {
                "name": "Orange",
                "quantity": 6,
                "consumed": true
            },
            {
                "name": "Bottle",
                "quantity": 1,
                "consumed": true
            }
        ],
        "craftQuantity": 1
    },
    {
        "name": "Apple Juice",
        "plural": "Apple Juices",
        "value": 6,
        "buyable": true,
        "an": "An",
        "recipe":   
        [
            {
                "name": "Apple",
                "quantity": 6,
                "consumed": true
            },
            {
                "name": "Bottle",
                "quantity": 1,
                "consumed": true
            }
        ],
        "craftQuantity": 1
    },
    {
        "name": "Key",
        "plural": "Keys",
        "value": 5,
        "buyable": false,
        "an": "A",
        "recipe": null,
        "craftQuantity": 1
    },
    {
        "name": "Bottle",
        "plural": "Bottles",
        "value": 2,
        "buyable": false,
        "an": "A",
        "recipe": null,
        "craftQuantity": 1
    },
    {
        "name": "Berry",
        "plural": "Berries",
        "value": 1,
        "buyable": true,
        "an": "A",
        "recipe": null,
        "craftQuantity": 1
    },
    {
        "name": "Bunny",
        "plural": "Bunnies",
        "value": 40,
        "buyable": false,
        "an": "A",
        "recipe": null,
        "craftQuantity": 1
    },
    {
        "name": "Mushroom",
        "plural": "Mushrooms",
        "value": 2,
        "buyable": true,
        "an": "A",
        "recipe": null,
        "craftQuantity": 1
    },
    {
        "name": "Mushroom Soup",
        "plural": "Mushroom Soup",
        "value": 15,
        "buyable": true,
        "an": "A",
        "recipe": null,
        "craftQuantity": 1
    },
    {
        "name": "Iron Ore",
        "plural": "Iron Ore",
        "value": 12,
        "buyable": true,
        "an": "An",
        "recipe": null,
        "craftQuantity": 1
    },
    {
        "name": "Iron Ingot",
        "plural": "Iron Ingots",
        "value": 30,
        "buyable": false,
        "an": "An",
        "recipe": 
        [
            {
                "name": "Iron Ore",
                "quantity": 3,
                "consumed": true
            },
            {
                "name": "Hammer",
                "quantity": 1,
                "consumed": false
            }
        ],
        "craftQuantity": 1
    },
    {
        "name": "Ancient Relic",
        "plural": "Ancient Relics",
        "value": 350,
        "buyable": false,
        "an": "An",
        "recipe": null,
        "craftQuantity": 1
    },
    {
        "name": "Rope",
        "plural": "Ropes",
        "value": 10,
        "buyable": true,
        "an": "A",
        "recipe": null,
        "craftQuantity": 1
    },
    {
        "name": "Rag",
        "plural": "Rags",
        "value": 1,
        "buyable": false,
        "an": "A",
        "recipe":
        [
            {
                "name": "Cloth Sheet",
                "quantity": 1,
                "consumed": true
            }
        ],
        "craftQuantity": 5
    },
    {
        "name": "Torch",
        "plural": "Torches",
        "value": 10,
        "buyable": true,
        "an": "A",
        "recipe":
        [
            {
                "name": "Rag",
                "quantity": 1,
                "consumed": true
            },
            {
                "name": "Stick",
                "quantity": 1,
                "consumed": true
            },
            {
                "name": "Vial of Tree Sap",
                "quantity": 1,
                "consumed": true
            }
        ],
        "craftQuantity": 1
    },
    {
        "name": "Lantern",
        "plural": "Lanterns",
        "value": 30,
        "buyable": true,
        "an": "A",
        "recipe": null,
        "craftQuantity": 1
    },
    {
        "name": "Lockpicking Set",
        "plural": "Lockpicking Sets",
        "value": 150,
        "buyable": true,
        "an": "A",
        "recipe": 
        [
            {
                "name": "Iron Ingot",
                "quantity": 1,
                "consumed": true
            },
            {
                "name": "Hammer",
                "quantity": 1,
                "consumed": false
            },
            {
                "name": "File",
                "quantity": 1,
                "consumed": false
            }
        ],
        "craftQuantity": 1
    },
    {
        "name": "Pickaxe",
        "plural": "Pickaxes",
        "value": 30,
        "buyable": true,
        "an": "A",
        "recipe": 
        [
            {
                "name": "Iron Ingot",
                "quantity": 2,
                "consumed": true
            },
            {
                "name": "Stick",
                "quantity": 1,
                "consumed": true
            },
            {
                "name": "Nail",
                "quantity": 1,
                "consumed": true
            },
            {
                "name": "Hammer",
                "quantity": 1,
                "consumed": false
            }
        ],
        "craftQuantity": 1
    },
    {
        "name": "Glowing Crystal",
        "plural": "Glowing Crystals",
        "value": 20,
        "buyable": false,
        "an": "A",
        "recipe": null,
        "craftQuantity": 1
    },
    {
        "name": "Medicine",
        "plural": "Medicines",
        "value": 50,
        "buyable": true,
        "an": "A",
        "recipe": null,
        "craftQuantity": 1
    },
    {
        "name": "Repair Kit",
        "plural": "Repair Kits",
        "value": 150,
        "buyable": true,
        "an": "A",
        "recipe": 
        [
            {
                "name": "Hammer",
                "quantity": 1,
                "consumed": true
            },
            {
                "name": "File",
                "quantity": 1,
                "consumed": true
            },
            {
                "name": "Nail",
                "quantity": 10,
                "consumed": true
            },
            {
                "name": "Thread",
                "quantity": 10,
                "consumed": true
            }
        ],
        "craftQuantity": 1
    },
    {
        "name": "Warding Amulet",
        "plural": "Warding Amulets",
        "value": 20,
        "buyable": true,
        "an": "A",
        "recipe": null,
        "craftQuantity": 1
    },
    {
        "name": "Pair of Dancing Shoes",
        "plural": "Pairs of Dancing Shoes",
        "value": 30,
        "buyable": true,
        "an": "A",
        "recipe": null,
        "craftQuantity": 1
    },
    {
        "name": "Stick",
        "plural": "Sticks",
        "value": 1,
        "buyable": true,
        "an": "A",
        "recipe": 
        [
            {
                "name": "Saw",
                "quantity": 1,
                "consumed": false
            },
            {
                "name": "Plank",
                "quantity": 1,
                "consumed": true
            }
        ],
        "craftQuantity": 5
    },
    {
        "name": "Plank",
        "plural": "Planks",
        "value": 3,
        "buyable": true,
        "an": "A",
        "recipe": 
        [
            {
                "name": "Saw",
                "quantity": 1,
                "consumed": false
            },
            {
                "name": "Log",
                "quantity": 1,
                "consumed": true
            }
        ],
        "craftQuantity": 4
    },
    {
        "name": "Log",
        "plural": "Logs",
        "value": 15,
        "buyable": true,
        "an": "A",
        "recipe": null,
        "craftQuantity": 1
    },
    {
        "name": "Towel",
        "plural": "Towels",
        "value": 8,
        "buyable": true,
        "an": "A",
        "recipe": null,
        "craftQuantity": 1
    },
    {
        "name": "Shield",
        "plural": "Shields",
        "value": 40,
        "buyable": true,
        "an": "A",
        "recipe": 
        [
            {
                "name": "Hammer",
                "quantity": 1,
                "consumed": false
            },
            {
                "name": "Iron Ingot",
                "quantity": 2,
                "consumed": true
            },
            {
                "name": "Leather Strip",
                "quantity": 1,
                "consumed": true
            }
        ],
        "craftQuantity": 1
    },
    {
        "name": "Saw",
        "plural": "Saws",
        "value": 23,
        "buyable": true,
        "an": "A",
        "recipe": 
        [
            {
                "name": "Hammer",
                "quantity": 1,
                "consumed": false
            },
            {
                "name": "File",
                "quantity": 1,
                "consumed": false
            },
            {
                "name": "Iron Ingot",
                "quantity": 2,
                "consumed": true
            },
            {
                "name": "Stick",
                "quantity": 1,
                "consumed": true
            }
        ],
        "craftQuantity": 1
    },
    {
        "name": "Magic Wand",
        "plural": "Magic Wands",
        "value": 300,
        "buyable": false,
        "an": "A",
        "recipe": null,
        "craftQuantity": 1
    },
    {
        "name": "Spellbook",
        "plural": "Spellbooks",
        "value": 800,
        "buyable": false,
        "an": "A",
        "recipe": null,
        "craftQuantity": 1
    },
    {
        "name": "Fairy",
        "plural": "Fairies",
        "value": 2000,
        "buyable": false,
        "an": "A",
        "recipe": null,
        "craftQuantity": 1
    },
    {
        "name": "Thread",
        "plural": "Threads",
        "value": 1,
        "buyable": true,
        "an": "A",
        "recipe": null,
        "craftQuantity": 1
    },
    {
        "name": "Feather",
        "plural": "Feathers",
        "value": 1,
        "buyable": true,
        "an": "A",
        "recipe": null,
        "craftQuantity": 1
    },
    {
        "name": "Fishing Rod",
        "plural": "Fishing Rods",
        "value": 20,
        "buyable": true,
        "an": "A",
        "recipe": 
        [
            {
                "name": "Thread",
                "quantity": 2,
                "consumed": true
            },
            {
                "name": "Stick",
                "quantity": 2,
                "consumed": true
            }
        ],
        "craftQuantity": 1
    },
    {
        "name": "Egg",
        "plural": "Eggs",
        "value": 5,
        "buyable": true,
        "an": "An",
        "recipe": null,
        "craftQuantity": 1
    },
    {
        "name": "Fish",
        "plural": "Fish",
        "value": 8,
        "buyable": true,
        "an": "A",
        "recipe": null,
        "craftQuantity": 1
    },
    {
        "name": "Arrow",
        "plural": "Arrows",
        "value": 3,
        "buyable": true,
        "an": "An",
        "recipe":  
        [
            {
                "name": "Iron Ingot",
                "quantity": 1,
                "consumed": true
            },
            {
                "name": "Stick",
                "quantity": 5,
                "consumed": true
            },
            {
                "name": "Feather",
                "quantity": 5,
                "consumed": true
            },
            {
                "name": "Hammer",
                "quantity": 1,
                "consumed": false
            }
        ],
        "craftQuantity": 5
    },
    {
        "name": "Hammer",
        "plural": "Hammers",
        "value": 13,
        "buyable": true,
        "an": "A",
        "recipe":  
        [
            {
                "name": "Iron Ingot",
                "quantity": 1,
                "consumed": true
            },
            {
                "name": "Nail",
                "quantity": 1,
                "consumed": true
            },
            {
                "name": "Stick",
                "quantity": 1,
                "consumed": true
            }
        ],
        "craftQuantity": 1
    },
    {
        "name": "File",
        "plural": "Files",
        "value": 17,
        "buyable": true,
        "an": "A",
        "recipe":  
        [
            {
                "name": "Iron Ingot",
                "quantity": 1,
                "consumed": true
            },
            {
                "name": "Hammer",
                "quantity": 1,
                "consumed": false
            }
        ],
        "craftQuantity": 1
    },
    {
        "name": "Good Luck Charm",
        "plural": "Good Luck Charms",
        "value": 3,
        "buyable": false,
        "an": "A",
        "recipe": null,
        "craftQuantity": 1
    },
    {
        "name": "Treasure Map",
        "plural": "Treasure Maps",
        "value": 80,
        "buyable": false,
        "an": "A",
        "recipe": null,
        "craftQuantity": 1
    }
]